{
  "name": "prueba_adrian3",
  "description": "Blank Process",
  "main": "Main.xaml",
  "dependencies": {
    "BalaReva.PDF.Activities": "1.0.0",
    "GitLabApiClient": "1.7.0",
    "UiPath.Excel.Activities": "[2.5.4]",
    "UiPath.Mail.Activities": "[1.4.1]",
    "UiPath.PDF.Activities": "3.3.0",
    "UiPath.System.Activities": "[19.4.1]",
    "UiPath.UIAutomation.Activities": "[19.4.2]",
    "UiPath.WebAPI.Activities": "1.6.0",
    "UiPath.Word.Activities": "1.5.3"
  },
  "schemaVersion": "3.2",
  "studioVersion": "19.4.4.0",
  "projectVersion": "1.0.0",
  "runtimeOptions": {
    "autoDispose": false,
    "isPausable": true,
    "excludedLoggedData": [
      "Private:*",
      "*password*"
    ]
  },
  "projectType": "Workflow",
  "libraryOptions": {
    "includeOriginalXaml": false,
    "privateWorkflows": []
  },
  "webServices": []
}